1,-1,350,100,20,30
1,-1,0,150,20,20
1,-1,350,40,10,10
1,-1,10,10,10,20
2,-1,7,151,20,20
2,-1,346,40,10,10
2,-1,12,13,10,20
2,-1,347,103,21,30
3,-1,14,152,20,20
3,-1,343,40,10,10
3,-1,345,107,21,30
3,-1,15,17,10,20
4,-1,340,40,10,10
4,-1,343,110,21,31
4,-1,21,153,20,20
4,-1,18,21,10,20
5,-1,341,114,21,31
5,-1,28,154,20,20
5,-1,337,40,10,10
5,-1,21,25,10,20
6,-1,334,40,10,10
6,-1,24,29,10,20
6,-1,450,110,1,2
6,-1,339,117,21,32
6,-1,35,155,20,20
7,-1,27,33,10,20
7,-1,42,156,21,20
7,-1,337,121,22,32
7,-1,450,112,1,2
7,-1,331,40,10,10
8,-1,328,40,10,10
8,-1,49,157,21,20
8,-1,30,37,10,20
8,-1,335,124,22,32
8,-1,450,114,1,2
9,-1,33,41,10,20
9,-1,56,158,21,20
9,-1,450,116,1,3
9,-1,324,40,10,10
9,-1,333,128,22,32
10,-1,331,131,22,33
10,-1,321,40,10,10
10,-1,450,118,1,3
10,-1,36,45,10,20
10,-1,63,159,21,21
11,-1,329,135,22,33
11,-1,70,160,21,21
11,-1,39,49,10,20
11,-1,318,40,10,10
11,-1,450,120,2,4
12,-1,450,122,2,4
12,-1,315,40,10,10
12,-1,42,53,10,20
12,-1,327,138,23,34
12,-1,77,161,21,21
13,-1,84,162,22,21
13,-1,450,124,2,5
13,-1,312,40,10,10
13,-1,325,142,23,34
13,-1,45,57,10,20
14,-1,323,145,23,34
14,-1,309,40,10,10
14,-1,450,126,2,5
14,-1,91,163,22,21
14,-1,48,61,10,20
15,-1,450,128,2,5
15,-1,321,149,23,34
15,-1,98,164,22,21
15,-1,306,40,10,10
15,-1,51,65,10,20
16,-1,319,153,23,34
16,-1,106,165,21,21
16,-1,53,69,10,20
16,-1,450,130,3,6
16,-1,303,40,10,10
17,-1,450,132,3,6
17,-1,317,156,23,35
17,-1,56,73,10,20
17,-1,299,40,10,10
17,-1,113,166,21,21
18,-1,450,134,3,7
18,-1,59,76,10,20
18,-1,296,40,10,10
18,-1,315,160,24,35
18,-1,120,167,21,21
19,-1,450,136,3,7
19,-1,293,40,10,10
19,-1,127,168,22,22
19,-1,313,163,24,36
19,-1,62,80,10,20
20,-1,290,40,10,10
20,-1,450,138,3,8
20,-1,311,167,24,35
20,-1,65,84,10,20
20,-1,134,169,22,22
21,-1,309,170,24,36
21,-1,68,88,10,20
21,-1,141,170,22,22
21,-1,450,140,4,8
21,-1,287,40,10,10
22,-1,148,171,22,22
22,-1,71,92,10,20
22,-1,284,40,10,10
22,-1,450,142,4,8
22,-1,307,174,24,36
23,-1,74,96,10,20
23,-1,305,177,25,37
23,-1,450,144,4,9
23,-1,155,172,22,22
23,-1,281,40,10,10
24,-1,77,100,10,20
24,-1,277,40,10,10
24,-1,162,173,22,22
24,-1,450,146,4,9
24,-1,303,181,25,37
25,-1,274,40,10,10
25,-1,80,104,10,20
25,-1,169,174,23,22
25,-1,450,148,4,10
25,-1,301,184,25,38
26,-1,83,108,10,20
26,-1,176,175,23,22
26,-1,271,40,10,10
26,-1,450,150,5,10
26,-1,299,188,25,37
27,-1,183,176,23,22
27,-1,297,191,25,38
27,-1,268,40,10,10
27,-1,86,112,10,20
27,-1,450,152,5,11
28,-1,190,177,23,23
28,-1,89,116,10,20
28,-1,450,154,5,11
28,-1,265,40,10,10
28,-1,295,195,25,38
29,-1,293,198,26,39
29,-1,450,156,5,11
29,-1,92,120,10,20
29,-1,262,40,10,10
29,-1,197,178,23,23
30,-1,205,179,22,23
30,-1,450,158,5,12
30,-1,291,202,26,39
30,-1,94,124,10,20
30,-1,259,40,10,10
31,-1,289,206,26,39
31,-1,450,160,6,12
31,-1,256,40,10,10
31,-1,97,128,10,20
31,-1,212,180,23,23
32,-1,219,181,23,23
32,-1,252,40,10,10
32,-1,450,162,6,13
32,-1,287,209,26,39
32,-1,100,132,10,20
33,-1,450,164,6,13
33,-1,103,136,10,20
33,-1,226,182,23,23
33,-1,285,213,26,39
33,-1,249,40,10,10
34,-1,283,216,27,40
34,-1,246,40,10,10
34,-1,106,140,10,20
34,-1,233,183,23,23
34,-1,450,166,6,14
35,-1,240,184,23,23
35,-1,281,220,27,40
35,-1,450,168,6,14
35,-1,243,40,10,10
35,-1,109,143,10,20
36,-1,450,170,7,14
36,-1,279,223,27,41
36,-1,112,147,10,20
36,-1,247,185,24,23
36,-1,240,40,10,10
37,-1,450,172,7,15
37,-1,254,186,24,24
37,-1,277,227,27,41
37,-1,115,151,10,20
37,-1,237,40,10,10
38,-1,234,40,10,10
38,-1,261,187,24,24
38,-1,450,174,7,15
38,-1,118,155,10,20
38,-1,275,230,27,42
39,-1,121,159,10,20
39,-1,268,188,24,24
39,-1,450,176,7,16
39,-1,273,234,27,41
39,-1,231,40,10,10
40,-1,450,178,7,16
40,-1,271,237,28,42
40,-1,275,189,24,24
40,-1,227,40,10,10
40,-1,124,163,10,20
41,-1,127,167,10,20
41,-1,450,180,8,16
41,-1,269,241,28,42
41,-1,282,190,24,24
41,-1,224,40,10,10
42,-1,450,182,8,17
42,-1,221,40,10,10
42,-1,289,191,25,24
42,-1,267,244,28,43
42,-1,130,171,10,20
43,-1,218,40,10,10
43,-1,450,184,8,17
43,-1,133,175,10,20
43,-1,265,248,28,43
43,-1,296,192,25,24
44,-1,135,179,10,20
44,-1,263,252,28,43
44,-1,215,40,10,10
44,-1,450,186,8,18
44,-1,304,193,24,24
45,-1,311,194,24,24
45,-1,138,183,10,20
45,-1,450,188,8,18
45,-1,212,40,10,10
45,-1,261,255,29,43
46,-1,318,195,24,25
46,-1,209,40,10,10
46,-1,141,187,10,20
46,-1,450,190,9,19
46,-1,259,259,29,43
47,-1,205,40,10,10
47,-1,144,191,10,20
47,-1,257,262,29,44
47,-1,325,196,24,25
47,-1,450,192,9,19
48,-1,202,40,10,10
48,-1,255,266,29,44
48,-1,450,194,9,19
48,-1,147,195,10,20
48,-1,332,197,25,25
49,-1,150,199,10,20
49,-1,199,40,10,10
49,-1,253,269,29,45
49,-1,450,196,9,20
49,-1,339,198,25,25
50,-1,450,198,9,20
50,-1,196,40,10,10
50,-1,153,203,10,20
50,-1,251,273,29,45
50,-1,346,199,25,25
51,-1,193,40,10,10
51,-1,353,200,25,25
51,-1,156,206,10,20
51,-1,450,201,10,20
51,-1,248,276,31,45
52,-1,190,40,10,10
52,-1,450,203,10,20
52,-1,360,201,25,25
52,-1,246,280,31,45
52,-1,159,210,10,20
53,-1,187,40,10,10
53,-1,450,205,10,21
53,-1,367,202,25,25
53,-1,162,214,10,20
53,-1,244,283,31,46
54,-1,184,40,10,10
54,-1,374,203,26,25
54,-1,165,218,10,20
54,-1,242,287,31,46
54,-1,450,207,10,21
55,-1,450,209,10,21
55,-1,168,222,10,20
55,-1,240,290,31,47
55,-1,180,40,10,10
55,-1,381,204,26,26
56,-1,388,205,26,26
56,-1,171,226,10,20
56,-1,450,211,11,22
56,-1,238,294,32,47
56,-1,177,40,10,10
57,-1,450,213,11,22
57,-1,174,230,10,20
57,-1,395,206,26,26
57,-1,236,297,32,47
57,-1,174,40,10,10
58,-1,450,215,11,23
58,-1,171,40,10,10
58,-1,403,207,25,26
58,-1,234,301,32,47
58,-1,176,234,10,20
59,-1,410,208,25,26
59,-1,232,305,32,47
59,-1,450,217,11,23
59,-1,168,40,10,10
59,-1,179,238,10,20
60,-1,182,242,10,20
60,-1,230,308,32,48
60,-1,450,219,11,24
60,-1,165,40,10,10
60,-1,417,209,26,26
61,-1,185,246,10,20
61,-1,228,312,32,48
61,-1,162,40,10,10
61,-1,450,221,12,24
61,-1,424,210,26,26
62,-1,431,211,26,26
62,-1,158,40,10,10
62,-1,188,250,10,20
62,-1,226,315,33,49
62,-1,450,223,12,24
63,-1,224,319,33,48
63,-1,155,40,10,10
63,-1,438,212,26,26
63,-1,450,225,12,25
63,-1,191,254,10,20
64,-1,152,40,10,10
64,-1,222,322,33,49
64,-1,450,227,12,25
64,-1,194,258,10,20
64,-1,445,213,26,27
65,-1,452,214,26,27
65,-1,197,262,10,20
65,-1,220,326,33,49
65,-1,149,40,10,10
65,-1,450,229,12,26
66,-1,146,40,10,10
66,-1,450,231,13,26
66,-1,218,329,33,50
66,-1,200,266,10,20
66,-1,459,215,27,27
67,-1,203,270,10,20
67,-1,216,333,34,50
67,-1,466,216,27,27
67,-1,143,40,10,10
67,-1,450,233,13,27
68,-1,206,273,10,20
68,-1,473,217,27,27
68,-1,140,40,10,10
68,-1,450,235,13,27
68,-1,214,336,34,51
69,-1,209,277,10,20
69,-1,450,237,13,27
69,-1,137,40,10,10
69,-1,480,218,27,27
69,-1,212,340,34,51
70,-1,450,239,13,28
70,-1,133,40,10,10
70,-1,210,343,34,51
70,-1,487,219,27,27
70,-1,212,281,10,20
71,-1,450,241,14,28
71,-1,130,40,10,10
71,-1,494,220,28,27
71,-1,215,285,10,20
71,-1,208,347,34,51
72,-1,217,289,10,20
72,-1,127,40,10,10
72,-1,502,221,27,27
72,-1,450,243,14,29
73,-1,220,293,10,20
73,-1,509,222,27,28
73,-1,124,40,10,10
73,-1,450,245,14,29
74,-1,450,247,14,29
74,-1,121,40,10,10
74,-1,516,223,27,28
74,-1,223,297,10,20
75,-1,118,40,10,10
75,-1,450,249,14,30
75,-1,523,224,27,28
75,-1,226,301,10,20
76,-1,530,225,27,28
76,-1,229,305,10,20
76,-1,115,40,10,10
76,-1,450,251,15,30
77,-1,537,226,28,28
77,-1,112,40,10,10
77,-1,232,309,10,20
77,-1,450,253,15,31
78,-1,235,313,10,20
78,-1,108,40,10,10
78,-1,544,227,28,28
78,-1,450,255,15,31
79,-1,105,40,10,10
79,-1,238,317,10,20
79,-1,450,257,15,32
79,-1,551,228,28,28
80,-1,102,40,10,10
80,-1,558,229,28,28
80,-1,450,259,15,32
80,-1,241,321,10,20
81,-1,244,325,10,20
81,-1,450,261,16,32
81,-1,565,230,28,28
81,-1,99,40,10,10
82,-1,247,329,10,20
82,-1,96,40,10,10
82,-1,450,263,16,33
82,-1,572,231,28,29
83,-1,93,40,10,10
83,-1,250,333,10,20
83,-1,450,265,16,33
84,-1,90,40,10,10
84,-1,450,267,16,34
84,-1,253,336,10,20
85,-1,450,269,16,34
85,-1,256,340,10,20
85,-1,86,40,10,10
86,-1,450,271,17,35
86,-1,258,344,10,20
86,-1,83,40,10,10
87,-1,80,40,10,10
87,-1,261,348,10,20
87,-1,450,273,17,35
88,-1,77,40,10,10
88,-1,264,352,10,20
88,-1,450,275,17,35
89,-1,267,356,10,20
89,-1,74,40,10,10
89,-1,450,277,17,36
90,-1,71,40,10,10
90,-1,270,360,10,20
90,-1,450,279,17,36
91,-1,273,364,10,20
91,-1,450,281,18,37
91,-1,68,40,10,10
92,-1,276,368,10,20
92,-1,65,40,10,10
92,-1,450,283,18,37
93,-1,279,372,10,20
93,-1,61,40,10,10
93,-1,450,285,18,38
94,-1,282,376,10,20
94,-1,58,40,10,10
94,-1,450,287,18,38
95,-1,285,380,10,20
95,-1,55,40,10,10
95,-1,450,289,18,38
96,-1,52,40,10,10
96,-1,450,291,19,39
97,-1,49,40,10,10
97,-1,450,293,19,39
98,-1,46,40,10,10
98,-1,450,295,19,40
99,-1,43,40,10,10
99,-1,450,297,19,40
100,-1,40,40,10,10
100,-1,450,300,20,40
